/media/jmarin/DATOS/Documentos/desarrollos/eclipse-2020-06/cac-model-utils/src/utiles/auxiliar/Firma.java
/media/jmarin/DATOS/Documentos/desarrollos/eclipse-2020-06/cac-model-utils/src/utiles/InvocadorServiciosHttp.java
/media/jmarin/DATOS/Documentos/desarrollos/eclipse-2020-06/cac-model-utils/src/utiles/NumeroDecimal.java
/media/jmarin/DATOS/Documentos/desarrollos/eclipse-2020-06/cac-model-utils/src/utiles/IdsCACVentaReserva.java
/media/jmarin/DATOS/Documentos/desarrollos/eclipse-2020-06/cac-model-utils/src/utiles/Base16Encoder.java
/media/jmarin/DATOS/Documentos/desarrollos/eclipse-2020-06/cac-model-utils/src/utiles/CriptoOperations.java
/media/jmarin/DATOS/Documentos/desarrollos/eclipse-2020-06/cac-model-utils/src/utiles/IOOperations.java
/media/jmarin/DATOS/Documentos/desarrollos/eclipse-2020-06/cac-model-utils/src/utiles/PartesNumeroDecimal.java
/media/jmarin/DATOS/Documentos/desarrollos/eclipse-2020-06/cac-model-utils/src/utiles/Constantes.java
/media/jmarin/DATOS/Documentos/desarrollos/eclipse-2020-06/cac-model-utils/src/utiles/ElementoBaseN.java
/media/jmarin/DATOS/Documentos/desarrollos/eclipse-2020-06/cac-model-utils/src/utiles/auxiliar/Correo.java
